{
    "channel_name": "askouija",
    "end_sentences": [
        "gg",
        "gg!",
        "byebye",
        "goodbye",
        "👌",
        "."
    ],
    "bot_sharp": "6073",
    "bot_name": "wIjO",
    "guesser": true,
    "comment_emoji": "comment",
    "history": ".words_history",
    "antiSpamDelay": 2000,
    "timeout": 2000,
    "ouijaConsecutiveTimeoutMinutes": 10,
    "ouijaConsecutiveLetters": 20,
    "maxImageRequest": 3
}